dlookr: 데이터진단, EDA, 데이터변환을 위한 패키지 | Dataholic
…
Data Transformation

browseVignettes(package = "dlookr")

데이터 품질진단

데이터: nycflights13

dlookr 패키지의 기초적인 사용 방법을 설명하기 위해서 nycflights13 패키지의 flights 데이터를 사용한다. flights 데이터 프레임은 2013년 NYC를 출발한 모든 항공편에 출발과 도착에 대한 정보를 담은 데이터다.

library(nycflights13)
dim(flights)
#> [1] 336776     19
flights
#> # A tibble: 336,776 x 19
#>     year month   day dep_time sched_dep_time dep_delay arr_time sched_arr_time
#>    <int> <int> <int>    <int>          <int>     <dbl>    <int>          <int>
#>  1  2013     1     1      517            515         2      830            819
#>  2  2013     1     1      533            529         4      850            830
#>  3  2013     1     1      542            540         2      923            850
#>  4  2013     1     1      544            545        -1     1004           1022
#>  5  2013     1     1      554            600        -6      812            837
#>  6  2013     1     1      554            558        -4      740            728
#>  7  2013     1     1      555            600        -5      913            854
#>  8  2013     1     1      557            600        -3      709            723
#>  9  2013     1     1      557            600        -3      838            846
#> 10  2013     1     1      558            600        -2      753            745
#> # … with 336,766 more rows, and 11 more variables: arr_delay <dbl>,
#> #   carrier <chr>, flight <int>, tailnum <chr>, origin <chr>, dest <chr>,
#> #   air_time <dbl>, distance <dbl>, hour <dbl>, minute <dbl>, time_hour <dttm>
…
levels: 수준의 이름

N : 관측치의 수

freq : 수준별 도수(frequency)

ratio : 수준별 상대도수(백분율 표현)

rank : 레벨별 도수 크기의 순위

다음처럼 diagnose_category()는 flights의 모든 범주형 변수를 진단할 수 있다.:

diagnose_category(flights)
#> # A tibble: 33 x 6
#>    variables levels      N  freq ratio  rank
#>    <chr>     <chr>   <int> <int> <dbl> <int>
#>  1 carrier   UA     336776 58665 17.4      1
#>  2 carrier   B6     336776 54635 16.2      2
#>  3 carrier   EV     336776 54173 16.1      3
#>  4 carrier   DL     336776 48110 14.3      4
#>  5 carrier   AA     336776 32729  9.72     5
#>  6 carrier   MQ     336776 26397  7.84     6
#>  7 carrier   US     336776 20536  6.10     7
#>  8 carrier   9E     336776 18460  5.48     8
#>  9 carrier   WN     336776 12275  3.64     9
#> 10 carrier   VX     336776  5162  1.53    10
#> # … with 23 more rows
…
이변량 데이터 EDA

correlate()을 이용한 상관계수 계산

다음처럼 correlate()는 carseats의 모든 수치 변수의 조합의 상관계수를 구한다.:

correlate(carseats)
#> # A tibble: 56 x 3
#>    var1        var2      coef_corr
#>    <fct>       <fct>         <dbl>
#>  1 CompPrice   Sales        0.0641
#>  2 Income      Sales        0.153 
#>  3 Advertising Sales        0.270 
#>  4 Population  Sales        0.0505
#>  5 Price       Sales       -0.445 
#>  6 Age         Sales       -0.232 
#>  7 Education   Sales       -0.0520
#>  8 Sales       CompPrice    0.0641
#>  9 Income      CompPrice   -0.0918
#> 10 Advertising CompPrice   -0.0242
#> # … with 46 more rows

다음은 선택된 몇 개의 변수를 포함한 조합에 대해서만 정규성 검정을 수행한다.

# Select columns by name
correlate(carseats, Sales, CompPrice, Income)
#> # A tibble: 21 x 3
#>    var1      var2        coef_corr
#>    <fct>     <fct>           <dbl>
#>  1 CompPrice Sales          0.0641
#>  2 Income    Sales          0.153 
#>  3 Sales     CompPrice      0.0641
#>  4 Income    CompPrice     -0.0918
#>  5 Sales     Income         0.153 
#>  6 CompPrice Income        -0.0918
#>  7 Sales     Advertising    0.270 
#>  8 CompPrice Advertising   -0.0242
#>  9 Income    Advertising    0.0674
#> 10 Sales     Population     0.0505
#> # … with 11 more rows
…
