dlookr: 탐색적 데이터 분석 | Dataholic
…
p50 : 중위수. 50% 백분위수

p75 : Q3. 75% 백분위수

p01, p05,p10,p20,p30` : 1%, 5%, 20%, 30% 백분위수

p40, p60,p70,p80` : 40%, 60%, 70%, 80% 백분위수

p90, p95,p99,p100` : 90%, 95%, 99%, 100% 백분위수

다음처럼 describe()는 carseats의 모든 수치 변수의 통계량을 계산한다.:

describe(carseats)
#> # A tibble: 8 x 26
#>   variable     n    na   mean    sd se_mean   IQR skewness kurtosis   p00    p01
#>   <chr>    <int> <int>  <dbl> <dbl>   <dbl> <dbl>    <dbl>    <dbl> <dbl>  <dbl>
#> 1 Sales      400     0   7.50  2.82   0.141  3.93   0.186   -0.0809     0  0.906
#> 2 CompPri…   400     0 125.   15.3    0.767 20     -0.0428   0.0417    77 89.0  
#> 3 Income     380    20  69.3  28.1    1.44  48      0.0360  -1.10      21 21.8  
#> 4 Adverti…   400     0   6.64  6.65   0.333 12      0.640   -0.545      0  0    
#> # … with 4 more rows, and 15 more variables: p05 <dbl>, p10 <dbl>, p20 <dbl>,
#> #   p25 <dbl>, p30 <dbl>, p40 <dbl>, p50 <dbl>, p60 <dbl>, p70 <dbl>,
#> #   p75 <dbl>, p80 <dbl>, p90 <dbl>, p95 <dbl>, p99 <dbl>, p100 <dbl>
…
# Select all columns between year and day (inclusive)
describe(carseats, Sales:Income)
#> # A tibble: 3 x 26
#>   variable     n    na   mean    sd se_mean   IQR skewness kurtosis   p00    p01
#>   <chr>    <int> <int>  <dbl> <dbl>   <dbl> <dbl>    <dbl>    <dbl> <dbl>  <dbl>
#> 1 Sales      400     0   7.50  2.82   0.141  3.93   0.186   -0.0809     0  0.906
#> 2 CompPri…   400     0 125.   15.3    0.767 20     -0.0428   0.0417    77 89.0  
#> 3 Income     380    20  69.3  28.1    1.44  48      0.0360  -1.10      21 21.8  
#> # … with 15 more variables: p05 <dbl>, p10 <dbl>, p20 <dbl>, p25 <dbl>,
#> #   p30 <dbl>, p40 <dbl>, p50 <dbl>, p60 <dbl>, p70 <dbl>, p75 <dbl>,
#> #   p80 <dbl>, p90 <dbl>, p95 <dbl>, p99 <dbl>, p100 <dbl>

# Select all columns except those from year to day (inclusive)
describe(carseats, -(Sales:Income))
#> # A tibble: 5 x 26
#>   variable     n    na   mean     sd se_mean   IQR skewness kurtosis   p00   p01
#>   <chr>    <int> <int>  <dbl>  <dbl>   <dbl> <dbl>    <dbl>    <dbl> <dbl> <dbl>
#> 1 Adverti…   400     0   6.64   6.65   0.333  12     0.640    -0.545     0   0  
#> 2 Populat…   400     0 265.   147.     7.37  260.   -0.0512   -1.20     10  16.0
#> 3 Price      400     0 116.    23.7    1.18   31    -0.125     0.452    24  55.0
#> 4 Age        400     0  53.3   16.2    0.810  26.2  -0.0772   -1.13     25  25  
#> # … with 1 more row, and 15 more variables: p05 <dbl>, p10 <dbl>, p20 <dbl>,
#> #   p25 <dbl>, p30 <dbl>, p40 <dbl>, p50 <dbl>, p60 <dbl>, p70 <dbl>,
#> #   p75 <dbl>, p80 <dbl>, p90 <dbl>, p95 <dbl>, p99 <dbl>, p100 <dbl>

dplyr을 이용해서 왼쪽이나 오른쪽으로 치우친 정도(왜도)의 크기별로 정렬할 수 있다.:

library(dplyr)

carseats %>%
  describe() %>%
  select(variable, skewness, mean, p25, p50, p75) %>% 
  filter(!is.na(skewness)) %>% 
  arrange(desc(abs(skewness)))
#> # A tibble: 8 x 6
#>   variable    skewness   mean    p25    p50    p75
#>   <chr>          <dbl>  <dbl>  <dbl>  <dbl>  <dbl>
#> 1 Advertising   0.640    6.64   0      5     12   
#> 2 Sales         0.186    7.50   5.39   7.49   9.32
#> 3 Price        -0.125  116.   100    117    131   
#> 4 Age          -0.0772  53.3   39.8   54.5   66   
#> # … with 4 more rows
…
carseats %>%
  group_by(US, Urban) %>% 
  describe(Sales, Income) 
#> # A tibble: 12 x 28
#>   variable US    Urban     n    na  mean    sd se_mean   IQR skewness kurtosis
#>   <chr>    <fct> <fct> <dbl> <dbl> <dbl> <dbl>   <dbl> <dbl>    <dbl>    <dbl>
#> 1 Sales    No    No       44     0  6.42  2.78   0.418  3.29   0.132     1.41 
#> 2 Sales    No    Yes      94     0  7.00  2.56   0.264  3.49   0.491     0.347
#> 3 Sales    No    <NA>      4     0  7.04  1.04   0.518  1.26  -0.887    -0.834
#> 4 Sales    Yes   No       71     0  8.21  2.61   0.310  4.08  -0.0453   -0.778
#> # … with 8 more rows, and 17 more variables: p00 <dbl>, p01 <dbl>, p05 <dbl>,
#> #   p10 <dbl>, p20 <dbl>, p25 <dbl>, p30 <dbl>, p40 <dbl>, p50 <dbl>,
#> #   p60 <dbl>, p70 <dbl>, p75 <dbl>, p80 <dbl>, p90 <dbl>, p95 <dbl>,
#> #   p99 <dbl>, p100 <dbl>
…
normality()는 수치 데이터의 정규성 검정을 수행한다. Shapiro-Wilk 정규성 검정을 수행하며, 관측치의 개수가 5000보다 클 경우에는 5000개의 단순 임의 추출을 수행한 후 검정한다.

normality()가 반환하는 tbl_df 객체의 변수는 다음과 같다.

statistic : Shapiro-Wilk 검정의 통계량

p_value : Shapiro-Wilk 검정의 p-value

sample : Shapiro-Wilk 검정을 수행한 샘플 관측치의 개수

다음처럼 normality()는 carseats의 모든 수치 변수의 정규성 검정을 수행한다.:

normality(carseats)
#> # A tibble: 8 x 4
#>   vars        statistic  p_value sample
#>   <chr>           <dbl>    <dbl>  <dbl>
#> 1 Sales           0.995 2.54e- 1    400
#> 2 CompPrice       0.998 9.77e- 1    400
#> 3 Income          0.961 1.55e- 8    400
#> 4 Advertising     0.874 1.49e-17    400
#> # … with 4 more rows
…
# Select all columns between year and day (inclusive)
normality(carseats, Sales:Income)
#> # A tibble: 3 x 4
#>   vars      statistic      p_value sample
#>   <chr>         <dbl>        <dbl>  <dbl>
#> 1 Sales         0.995 0.254           400
#> 2 CompPrice     0.998 0.977           400
#> 3 Income        0.961 0.0000000155    400

# Select all columns except those from year to day (inclusive)
normality(carseats, -(Sales:Income))
#> # A tibble: 5 x 4
#>   vars        statistic  p_value sample
#>   <chr>           <dbl>    <dbl>  <dbl>
#> 1 Advertising     0.874 1.49e-17    400
#> 2 Population      0.952 4.08e-10    400
#> 3 Price           0.996 3.90e- 1    400
#> 4 Age             0.957 1.86e- 9    400
#> # … with 1 more row

dplyr을 이용해서 정규분포를 따르지 않는 변수를 p_value 순으로 정렬할 수 있다.:

library(dplyr)

carseats %>%
  normality() %>%
  filter(p_value <= 0.01) %>% 
  arrange(abs(p_value))
#> # A tibble: 5 x 4
#>   vars        statistic  p_value sample
#>   <chr>           <dbl>    <dbl>  <dbl>
#> 1 Advertising     0.874 1.49e-17    400
#> 2 Education       0.924 2.43e-13    400
#> 3 Population      0.952 4.08e-10    400
#> 4 Age             0.957 1.86e- 9    400
#> # … with 1 more row

특히 Advertising 변수는 정규분포에서 가장 벗어난 것으로 파악된다.

normality() 함수는 dplyr 패키지의 group_by() 함수 구문을 지원한다.

carseats %>%
  group_by(ShelveLoc, US) %>%
  normality(Income) %>% 
  arrange(desc(p_value))
#> # A tibble: 6 x 6
#>   variable ShelveLoc US    statistic p_value sample
#>   <chr>    <fct>     <fct>     <dbl>   <dbl>  <dbl>
#> 1 Income   Bad       No        0.965  0.350      34
#> 2 Income   Good      Yes       0.958  0.0359     61
#> 3 Income   Bad       Yes       0.952  0.0236     62
#> 4 Income   Good      No        0.879  0.0140     24
#> # … with 2 more rows
…
이변량 데이터 EDA

correlate()을 이용한 상관계수 계산

다음처럼 correlate()는 carseats의 모든 수치 변수의 조합의 상관계수를 구한다.:

correlate(carseats)
#> # A tibble: 56 x 3
#>   var1        var2  coef_corr
#>   <fct>       <fct>     <dbl>
#> 1 CompPrice   Sales    0.0641
#> 2 Income      Sales    0.153 
#> 3 Advertising Sales    0.270 
#> 4 Population  Sales    0.0505
#> # … with 52 more rows

다음은 선택된 몇 개의 변수를 포함한 조합에 대해서만 정규성 검정을 수행한다.

# Select columns by name
correlate(carseats, Sales, CompPrice, Income)
#> # A tibble: 21 x 3
#>   var1      var2      coef_corr
#>   <fct>     <fct>         <dbl>
#> 1 CompPrice Sales        0.0641
#> 2 Income    Sales        0.153 
#> 3 Sales     CompPrice    0.0641
#> 4 Income    CompPrice   -0.0918
#> # … with 17 more rows

# Select all columns between year and day (inclusive)
correlate(carseats, Sales:Income)
#> # A tibble: 21 x 3
#>   var1      var2      coef_corr
#>   <fct>     <fct>         <dbl>
#> 1 CompPrice Sales        0.0641
#> 2 Income    Sales        0.153 
#> 3 Sales     CompPrice    0.0641
#> 4 Income    CompPrice   -0.0918
#> # … with 17 more rows

# Select all columns except those from year to day (inclusive)
correlate(carseats, -(Sales:Income))
#> # A tibble: 35 x 3
#>   var1        var2  coef_corr
#>   <fct>       <fct>     <dbl>
#> 1 Advertising Sales    0.270 
#> 2 Population  Sales    0.0505
#> 3 Price       Sales   -0.445 
#> 4 Age         Sales   -0.232 
#> # … with 31 more rows
…
correlate() 함수도 dplyr 패키지의 group_by() 함수 구문을 지원한다.

carseats %>%
  filter(ShelveLoc == "Good") %>%
  group_by(Urban, US) %>%
  correlate(Sales) %>%
  filter(abs(coef_corr) > 0.5)
#> # A tibble: 6 x 5
#>   Urban US    var1  var2       coef_corr
#>   <fct> <fct> <fct> <fct>          <dbl>
#> 1 No    No    Sales Population    -0.530
#> 2 No    No    Sales Price         -0.838
#> 3 No    Yes   Sales Price         -0.655
#> 4 Yes   No    Sales Price         -0.837
#> # … with 2 more rows
…
