dlookr: 데이터 품질 진단 | Dataholic
…
연속형 변수를 비닝(binning)하여 범주형 변수로 만들고, 비닝의 의사결정에 도움을 주는 리포트를 생성한다.

이 문서는 dlookr 기능 중에서 데이터 품질 진단 기능을 소개한다. 여러분은 dlookr에서 제공하는 함수로 데이터 프레임과 데이터 프레임을 상속한 tbl_df 데이터의 품질을 진단하는 방법을 일힐 수 있을 것이다.

dlookr 패키지는 dplyr 패키지와 함께 사용하면 시너지가 증가된다. 특히 데이터 탐색 및 데이터 조작에서 tidyverse 패키지 그룹의 효율성을 높여준다.

Data: nycflights13

dlookr 패키지의 기초적인 사용 방법을 설명하기 위해서 nycflights13 패키지의 flights 데이터를 사용한다. flights 데이터 프레임은 2013년 NYC를 출발한 모든 항공편에 출발과 도착에 대한 정보를 담은 데이터다.

library(nycflights13)
dim(flights)
#> [1] 336776     19
flights
#> # A tibble: 336,776 x 19
#>    year month   day dep_time sched_dep_time dep_delay arr_time sched_arr_time
#>   <int> <int> <int>    <int>          <int>     <dbl>    <int>          <int>
#> 1  2013     1     1      517            515         2      830            819
#> 2  2013     1     1      533            529         4      850            830
#> 3  2013     1     1      542            540         2      923            850
#> 4  2013     1     1      544            545        -1     1004           1022
#> # … with 336,772 more rows, and 11 more variables: arr_delay <dbl>,
#> #   carrier <chr>, flight <int>, tailnum <chr>, origin <chr>, dest <chr>,
#> #   air_time <dbl>, distance <dbl>, hour <dbl>, minute <dbl>, time_hour <dttm>
…
types : 변수의 데이터 유형

missing_count : 결측치 수

missing_percent : 결측치의 백분율

unique_count : 유일값의 수

unique_rate : 유일값의 비율. unique_count / 관측치의 수

다음처럼 diagnose()는 flights의 모든 변수를 진단할 수 있다.:

diagnose(flights)
#> # A tibble: 19 x 6
#>   variables types   missing_count missing_percent unique_count unique_rate
#>   <chr>     <chr>           <int>           <dbl>        <int>       <dbl>
#> 1 year      integer             0            0               1  0.00000297
#> 2 month     integer             0            0              12  0.0000356 
#> 3 day       integer             0            0              31  0.0000920 
#> 4 dep_time  integer          8255            2.45         1319  0.00392   
#> # … with 15 more rows
…
#>   <chr>     <chr>           <int>           <dbl>        <int>       <dbl>
#> 1 year      integer             0               0            1  0.00000297
#> 2 month     integer             0               0           12  0.0000356 
#> 3 day       integer             0               0           31  0.0000920
# Select all columns between year and day (inclusive)
diagnose(flights, year:day)
#> # A tibble: 3 x 6
#>   variables types   missing_count missing_percent unique_count unique_rate
#>   <chr>     <chr>           <int>           <dbl>        <int>       <dbl>
#> 1 year      integer             0               0            1  0.00000297
#> 2 month     integer             0               0           12  0.0000356 
#> 3 day       integer             0               0           31  0.0000920
# Select all columns except those from year to day (inclusive)
diagnose(flights, -(year:day))
#> # A tibble: 16 x 6
#>   variables      types   missing_count missing_percent unique_count unique_rate
#>   <chr>          <chr>           <int>           <dbl>        <int>       <dbl>
#> 1 dep_time       integer          8255            2.45         1319     0.00392
#> 2 sched_dep_time integer             0            0            1021     0.00303
#> 3 dep_delay      numeric          8255            2.45          528     0.00157
#> 4 arr_time       integer          8713            2.59         1412     0.00419
#> # … with 12 more rows

dplyr을 이용해서 결측치를 포함한 변수를 결측치의 비중별로 정렬할 수 있다.:

flights %>%
  diagnose() %>%
  select(-unique_count, -unique_rate) %>% 
  filter(missing_count > 0) %>% 
  arrange(desc(missing_count))
#> # A tibble: 6 x 4
#>   variables types   missing_count missing_percent
#>   <chr>     <chr>           <int>           <dbl>
#> 1 arr_delay numeric          9430            2.80
#> 2 air_time  numeric          9430            2.80
#> 3 arr_time  integer          8713            2.59
#> 4 dep_time  integer          8255            2.45
#> # … with 2 more rows
…
zero : 0의 값을 갖는 관측치의 개수

minus : 음수를 갖는 관측치의 개수

outlier : 이상치의 개수

데이터 프레임에 summary() 함수를 적용하면 수치형 변수의 min, Q1, mean, median, Q3 , max를 콘솔에 출력하여 데이터의 분포를 파악할 수 있도록 도와준다. 그러나 그 결과는 분석가가 눈으로만 살펴볼 수 밖에 없는 단점이 있다. 그런데 이런 정보들을 tbl_df와 같은 데이터 프레임 구조로 반환하면 활용의 범위가 넓어진다.

zero, minus, outlier는 데이터의 무결성을 진단하는데 유용한 측도다. 예를 들어 어떤 경우의 수치 데이터는 0이나 음수를 가질 수 없는 경우가 있기 때문이다. ’직원의 급여’라는 가상의 수치형 변수는 음수나 0을 가질 수 없기 때문에 데이터 진단 과정에서 0이나 음수의 포함 여부를 살펴보아야 한다.

다음처럼 diagnose_numeric()는 flights의 모든 수치형 변수를 진단할 수 있다.:

diagnose_numeric(flights)
#> # A tibble: 14 x 10
#>   variables   min    Q1    mean median    Q3   max  zero minus outlier
#>   <chr>     <dbl> <dbl>   <dbl>  <dbl> <dbl> <dbl> <int> <int>   <int>
#> 1 year       2013  2013 2013      2013  2013  2013     0     0       0
#> 2 month         1     4    6.55      7    10    12     0     0       0
#> 3 day           1     8   15.7      16    23    31     0     0       0
#> 4 dep_time      1   907 1349.     1401  1744  2400     0     0       0
#> # … with 10 more rows
…
levels: 수준의 이름

N : 관측치의 수

freq : 수준별 도수(frequency)

ratio : 수준별 상대도수(백분율 표현)

rank : 레벨별 도수 크기의 순위

다음처럼 diagnose_category()는 flights의 모든 범주형 변수를 진단할 수 있다.:

diagnose_category(flights)
#> # A tibble: 33 x 6
#>   variables levels      N  freq ratio  rank
#>   <chr>     <chr>   <int> <int> <dbl> <int>
#> 1 carrier   UA     336776 58665  17.4     1
#> 2 carrier   B6     336776 54635  16.2     2
#> 3 carrier   EV     336776 54173  16.1     3
#> 4 carrier   DL     336776 48110  14.3     4
#> # … with 29 more rows
dplyr 패키지의 filter()와 협업하여 결측치가 top 10에 포함된 사례를 조회한 결과에서 tailnum 변수가 2,512건의 결측치로 top 1에 랭크된 것을 알 수 있다.:

diagnose_category(flights) %>% 
  filter(is.na(levels))
#> # A tibble: 1 x 6
#>   variables levels      N  freq ratio  rank
#>   <chr>     <chr>   <int> <int> <dbl> <int>
#> 1 tailnum   <NA>   336776  2512 0.746     1

다음은 수준이 차지하는 비중이 0.01% 이하인 목록을 반환한다. top 인수값을 500으로 넉넉하게 지정한 것에 주목해야 한다. 만약 기본값인 10을 사용하였다면 0.01% 이하의 값은 목록에 포함되지 못했을 것이다.:

flights %>%
  diagnose_category(top = 500)  %>%
  filter(ratio <= 0.01)
#> # A tibble: 10 x 6
#>   variables levels      N  freq   ratio  rank
#>   <chr>     <chr>   <int> <int>   <dbl> <int>
#> 1 carrier   OO     336776    32 0.00950    16
#> 2 dest      JAC    336776    25 0.00742    97
#> 3 dest      PSP    336776    19 0.00564    98
#> 4 dest      EYW    336776    17 0.00505    99
#> # … with 6 more rows
…
outliers_cnt : 이상치의 개수

outliers_ratio : 이상치의 비율(백분율)

outliers_mean : 이상치들의 산술평균

with_mean : 이상치를 포함한 전체 관측치의 평균

without_mean : 이상치를 제거한 관측치의 산술평균

다음처럼 diagnose_outlier()는 flights의 모든 수치형 변수의 이상치를 진단할 수 있다.:

diagnose_outlier(flights)
#> # A tibble: 14 x 6
#>   variables outliers_cnt outliers_ratio outliers_mean with_mean without_mean
#>   <chr>            <int>          <dbl>         <dbl>     <dbl>        <dbl>
#> 1 year                 0              0           NaN   2013         2013   
#> 2 month                0              0           NaN      6.55         6.55
#> 3 day                  0              0           NaN     15.7         15.7 
#> 4 dep_time             0              0           NaN   1349.        1349.  
#> # … with 10 more rows

이상치를 포함하는 수치형 변수는 filter()로 쉽게 찾아낸다.:

diagnose_outlier(flights) %>% 
  filter(outliers_cnt > 0) 
#> # A tibble: 5 x 6
#>   variables outliers_cnt outliers_ratio outliers_mean with_mean without_mean
#>   <chr>            <int>          <dbl>         <dbl>     <dbl>        <dbl>
#> 1 dep_delay        43216      12.8               93.1     12.6         0.444
#> 2 arr_delay        27880       8.28             121.       6.90       -3.69 
#> 3 flight               1       0.000297        8500     1972.       1972.   
#> 4 air_time          5448       1.62             400.     151.        146.   
#> # … with 1 more row
…
