Dataholic: alookr - Binary classification modeling
…
split_by()을 이용한 데이터 분할

split_by()는 split_df 클래스 객체를 반환하는데, 여기에는 training set과 test set를 분리하기 위한 분할 정보 및 기준이 포함된다.

library(alookr)
library(dplyr)

# 데이터의 분할
sb <- ISLR::Default %>%
  split_by(default, seed = 6534)

sb

# A tibble: 10,000 x 5
# Groups:   split_flag [2]
   default student balance income split_flag
   <fct>   <fct>     <dbl>  <dbl> <chr>     
 1 No      No         730. 44362. train     
 2 No      Yes        817. 12106. train     
 3 No      No        1074. 31767. train     
 4 No      No         529. 35704. train     
 5 No      No         786. 38463. test      
 6 No      Yes        920.  7492. train     
 7 No      No         826. 24905. test      
 8 No      Yes        809. 17600. train     
 9 No      No        1161. 37469. train     
10 No      No           0  29275. train     
# … with 9,990 more rows
…
