dlookr: 데이터 변환 | Dataholic
…
# -------------------------
# Using pipes & dplyr
# -------------------------
library(dplyr)

carseats %>%
 mutate(Income_bin = binning(carseats$Income)) %>%
 group_by(ShelveLoc, Income_bin) %>%
 summarise(freq = n()) %>%
 arrange(desc(freq)) %>%
 head(10)
#> `summarise()` regrouping output by 'ShelveLoc' (override with `.groups` argument)
#> # A tibble: 10 x 3
#> # Groups:   ShelveLoc [1]
#>   ShelveLoc Income_bin  freq
#>   <fct>     <ord>      <int>
#> 1 Medium    [21,31.4]     25
#> 2 Medium    (62,69]       23
#> 3 Medium    (50,62]       22
#> 4 Medium    (31.4,40]     21
#> # … with 6 more rows
…
