비닝(Binning) | Dataholic
…
dplyr 패키지와의 협업

dlookr 패키지는 dplyr 패키지와 궁합이 잘 맞는다. 다음은 Income을 비닝 후 ShelveLoc 변수의 수준(levels)별로 비닝 구간의 분포를 비교한다.

library(dplyr)

carseats %>%
 mutate(Income_bin = binning(carseats$Income) %>% 
                     extract()) %>%
 group_by(ShelveLoc, Income_bin) %>%
 summarise(freq = n()) %>%
 arrange(ShelveLoc, desc(freq)) 

## # A tibble: 33 x 3
## # Groups:   ShelveLoc [3]
##    ShelveLoc Income_bin  freq
##    <fct>     <ord>      <int>
##  1 Bad       (50,62]       13
##  2 Bad       (107,120]     11
##  3 Bad       (78,86]       10
##  4 Bad       (96.6,107]    10
##  5 Bad       (39.4,50]      9
##  6 Bad       (86,96.6]      9
##  7 Bad       (69,78]        8
##  8 Bad       (31,39.4]      7
##  9 Bad       (62,69]        7
## 10 Bad       [21,31]        6
## # … with 23 more rows
…
